\relax 
\providecommand\hyper@newdestlabel[2]{}
\providecommand\HyperFirstAtBeginDocument{\AtBeginDocument}
\HyperFirstAtBeginDocument{\ifx\hyper@anchor\@undefined
\global\let\oldcontentsline\contentsline
\gdef\contentsline#1#2#3#4{\oldcontentsline{#1}{#2}{#3}}
\global\let\oldnewlabel\newlabel
\gdef\newlabel#1#2{\newlabelxx{#1}#2}
\gdef\newlabelxx#1#2#3#4#5#6{\oldnewlabel{#1}{{#2}{#3}}}
\AtEndDocument{\ifx\hyper@anchor\@undefined
\let\contentsline\oldcontentsline
\let\newlabel\oldnewlabel
\fi}
\fi}
\global\let\hyper@last\relax 
\gdef\HyperFirstAtBeginDocument#1{#1}
\providecommand\HyField@AuxAddToFields[1]{}
\providecommand\HyField@AuxAddToCoFields[2]{}
\citation{Gunzburger_2000}
\citation{Jameson_1988}
\citation{Bewley_2001}
\citation{Giles_2001}
\citation{Wei_2006}
\citation{Kim_2014}
\citation{Rallison_1984}
\citation{Taylor_1934}
\citation{Rallison_1984}
\citation{Sherwood_1988}
\citation{Rallison_1984}
\citation{Sherwood_1988}
\citation{Sherwood_1988}
\citation{Lac_2007}
\citation{Das_2017b}
\@writefile{toc}{\contentsline {section}{Introduction}{1}{section*.1}}
\citation{Stone_1994}
\citation{Acrivos_1983}
\citation{Melcher_1969}
\providecommand*\caption@xref[2]{\@setref\relax\@undefined{#1}}
\newlabel{fig:cp_rank4}{{1a}{2}{Subfigure 1a}{subfigure.1.1}{}}
\newlabel{sub@fig:cp_rank4}{{(a)}{a}{Subfigure 1a\relax }{subfigure.1.1}{}}
\newlabel{fig:cp_rank9}{{1b}{2}{Subfigure 1b}{subfigure.1.2}{}}
\newlabel{sub@fig:cp_rank9}{{(b)}{b}{Subfigure 1b\relax }{subfigure.1.2}{}}
\@writefile{lof}{\contentsline {figure}{\numberline {1}{\ignorespaces Deformation of a drop under the influence of (a) extensional flow\nobreakspace  {}\cite  {Rallison_1984}, and (b) electric field\nobreakspace  {}\cite  {Sherwood_1988}.\relax }}{2}{figure.caption.2}}
\newlabel{fig:drop_def}{{1}{2}{Deformation of a drop under the influence of (a) extensional flow~\cite {Rallison_1984}, and (b) electric field~\cite {Sherwood_1988}.\relax }{figure.caption.2}{}}
\@writefile{lof}{\contentsline {subfigure}{\numberline{(a)}{\ignorespaces {}}}{2}{subfigure.1.1}}
\@writefile{lof}{\contentsline {subfigure}{\numberline{(b)}{\ignorespaces {}}}{2}{subfigure.1.2}}
\@writefile{toc}{\contentsline {section}{Governing equations}{2}{section*.3}}
\newlabel{sec_ge}{{}{2}{Governing equations}{section*.3}{}}
\newlabel{St_Eq}{{3}{2}{Governing equations}{equation.0.2}{}}
\newlabel{NDBC_EP}{{4}{2}{Governing equations}{equation.0.4}{}}
\newlabel{GE_EF}{{5}{3}{Governing equations}{equation.0.5}{}}
\newlabel{stress_balance_ef}{{7}{3}{Governing equations}{equation.0.6}{}}
\newlabel{elec_traction}{{8}{3}{Governing equations}{equation.0.8}{}}
\@writefile{toc}{\contentsline {section}{Continuous adjoint theory}{3}{section*.4}}
\newlabel{defn_var_J}{{10}{3}{Continuous adjoint theory}{equation.0.10}{}}
\@writefile{toc}{\contentsline {subsection}{Case\nobreakspace  {}1: Extensional flow problem}{3}{section*.5}}
\newlabel{Lagrangian_ext}{{12}{3}{Case~1: Extensional flow problem}{equation.0.11}{}}
\newlabel{adj_stokes}{{15}{4}{Case~1: Extensional flow problem}{equation.0.14}{}}
\newlabel{equal_adj_stress}{{17}{4}{Case~1: Extensional flow problem}{equation.0.16}{}}
\newlabel{adj_traction_flow}{{18}{4}{Case~1: Extensional flow problem}{equation.0.18}{}}
\newlabel{grad_ext_p}{{19}{4}{Case~1: Extensional flow problem}{equation.0.19}{}}
\@writefile{toc}{\contentsline {subsection}{Case\nobreakspace  {}2: Electrohydrodynamics problem}{4}{section*.6}}
\newlabel{Lagr_total_EF}{{21}{4}{Case~2: Electrohydrodynamics problem}{equation.0.20}{}}
\newlabel{SB_electric}{{22}{4}{Case~2: Electrohydrodynamics problem}{equation.0.22}{}}
\citation{Pozrikidis_1992}
\citation{Lac_2007}
\citation{Stone_1989}
\citation{Biesel_1973}
\citation{Stone_1989}
\citation{Rallison_1978}
\citation{Stone_1989}
\citation{Biesel_1973}
\citation{Stone_1989}
\citation{Biesel_1973}
\citation{Stone_1989}
\citation{Biesel_1973}
\newlabel{adj_traction_electric}{{23}{5}{Case~2: Electrohydrodynamics problem}{equation.0.23}{}}
\newlabel{grad_elec_p}{{24}{5}{Case~2: Electrohydrodynamics problem}{equation.0.24}{}}
\@writefile{toc}{\contentsline {subsection}{Numerical implementation}{5}{section*.7}}
\newlabel{kc_ext_p}{{25}{5}{Numerical implementation}{equation.0.25}{}}
\@writefile{toc}{\contentsline {section}{Results and Discussion}{5}{section*.8}}
\@writefile{toc}{\contentsline {subsection}{Case\nobreakspace  {}1: Extensional flow problem}{5}{section*.9}}
\citation{Lac_2007}
\newlabel{fig:cp_rank4}{{2a}{6}{Subfigure 2a}{subfigure.2.1}{}}
\newlabel{sub@fig:cp_rank4}{{(a)}{a}{Subfigure 2a\relax }{subfigure.2.1}{}}
\newlabel{fig:cp_rank9}{{2b}{6}{Subfigure 2b}{subfigure.2.2}{}}
\newlabel{sub@fig:cp_rank9}{{(b)}{b}{Subfigure 2b\relax }{subfigure.2.2}{}}
\newlabel{fig:cp_rank9}{{2c}{6}{Subfigure 2c}{subfigure.2.3}{}}
\newlabel{sub@fig:cp_rank9}{{(c)}{c}{Subfigure 2c\relax }{subfigure.2.3}{}}
\@writefile{lof}{\contentsline {figure}{\numberline {2}{\ignorespaces Drop deformation $D$ vs. capillary number $Ca$ for viscosity ratio (a) $\lambda =0.1$, (b) $\lambda =1$ and (c) $\lambda =10$. For all three cases, $N=60$. Symbol $\triangle $ is for the current work and the solid line is from the numerical result of Stone and Leal\nobreakspace  {}\cite  {Stone_1989}. The dot dashed and dashed lines are the $O(Ca)$ and $O(Ca^2)$ small deformation theories\nobreakspace  {}\cite  {Biesel_1973}, and the circles in Fig.\nobreakspace  {}(b) are the unpublished results of Duffy and Blundell.\relax }}{6}{figure.caption.10}}
\newlabel{fig:DvsC_Ext_lambdas}{{2}{6}{Drop deformation $D$ vs. capillary number $Ca$ for viscosity ratio (a) $\lambda =0.1$, (b) $\lambda =1$ and (c) $\lambda =10$. For all three cases, $N=60$. Symbol $\triangle $ is for the current work and the solid line is from the numerical result of Stone and Leal~\cite {Stone_1989}. The dot dashed and dashed lines are the $O(Ca)$ and $O(Ca^2)$ small deformation theories~\cite {Biesel_1973}, and the circles in Fig.~(b) are the unpublished results of Duffy and Blundell.\relax }{figure.caption.10}{}}
\@writefile{lof}{\contentsline {subfigure}{\numberline{(a)}{\ignorespaces {}}}{6}{subfigure.2.1}}
\@writefile{lof}{\contentsline {subfigure}{\numberline{(b)}{\ignorespaces {}}}{6}{subfigure.2.2}}
\@writefile{lof}{\contentsline {subfigure}{\numberline{(c)}{\ignorespaces {}}}{6}{subfigure.2.3}}
\newlabel{fig:cp_rank4}{{3a}{6}{Subfigure 3a}{subfigure.3.1}{}}
\newlabel{sub@fig:cp_rank4}{{(a)}{a}{Subfigure 3a\relax }{subfigure.3.1}{}}
\newlabel{fig:cp_rank9}{{3b}{6}{Subfigure 3b}{subfigure.3.2}{}}
\newlabel{sub@fig:cp_rank9}{{(b)}{b}{Subfigure 3b\relax }{subfigure.3.2}{}}
\@writefile{lof}{\contentsline {figure}{\numberline {3}{\ignorespaces Normalized cost function vs. capillary number $Ca$ for initial (a) $Ca=0.04$ and (b) $Ca=0.08$. In both cases, the optimal capillary number $Ca_d=0.06$, $\lambda =1$, $\delta = 0.01$ and $N=60$.\relax }}{6}{figure.caption.11}}
\newlabel{fig:cost_fun}{{3}{6}{Normalized cost function vs. capillary number $Ca$ for initial (a) $Ca=0.04$ and (b) $Ca=0.08$. In both cases, the optimal capillary number $Ca_d=0.06$, $\lambda =1$, $\delta = 0.01$ and $N=60$.\relax }{figure.caption.11}{}}
\@writefile{lof}{\contentsline {subfigure}{\numberline{(a)}{\ignorespaces {}}}{6}{subfigure.3.1}}
\@writefile{lof}{\contentsline {subfigure}{\numberline{(b)}{\ignorespaces {}}}{6}{subfigure.3.2}}
\citation{Lac_2007}
\citation{Taylor_1966}
\citation{Ajayi_1978}
\citation{Lac_2007}
\citation{Taylor_1966}
\citation{Ajayi_1978}
\newlabel{fig:cp_rank4}{{4a}{7}{Subfigure 4a}{subfigure.4.1}{}}
\newlabel{sub@fig:cp_rank4}{{(a)}{a}{Subfigure 4a\relax }{subfigure.4.1}{}}
\newlabel{fig:cp_rank9}{{4b}{7}{Subfigure 4b}{subfigure.4.2}{}}
\newlabel{sub@fig:cp_rank9}{{(b)}{b}{Subfigure 4b\relax }{subfigure.4.2}{}}
\@writefile{lof}{\contentsline {figure}{\numberline {4}{\ignorespaces Comparison of the adjoint and finite difference gradients for approaches from both sides of the optimal capillary number, $Ca_d=0.06$ and $N=60$.\relax }}{7}{figure.caption.12}}
\newlabel{fig:grad_comp}{{4}{7}{Comparison of the adjoint and finite difference gradients for approaches from both sides of the optimal capillary number, $Ca_d=0.06$ and $N=60$.\relax }{figure.caption.12}{}}
\@writefile{lof}{\contentsline {subfigure}{\numberline{(a)}{\ignorespaces {}}}{7}{subfigure.4.1}}
\@writefile{lof}{\contentsline {subfigure}{\numberline{(b)}{\ignorespaces {}}}{7}{subfigure.4.2}}
\newlabel{fig:cp_rank4}{{5a}{7}{Subfigure 5a}{subfigure.5.1}{}}
\newlabel{sub@fig:cp_rank4}{{(a)}{a}{Subfigure 5a\relax }{subfigure.5.1}{}}
\newlabel{fig:cp_rank9}{{5b}{7}{Subfigure 5b}{subfigure.5.2}{}}
\newlabel{sub@fig:cp_rank9}{{(b)}{b}{Subfigure 5b\relax }{subfigure.5.2}{}}
\@writefile{lof}{\contentsline {figure}{\numberline {5}{\ignorespaces Comparison of (a) normalized error vs. equilibrium criterion $(\delta =\textbf  {u} \cdot \textbf  {n})$ for $Ca=0.08$, and $N=60$, $80$ and $100$ marker points; and (b) comparison of normalized error vs $Ca$ for $\lambda =0.1,1$ and $10$, and $\delta =0.01$.\relax }}{7}{figure.caption.13}}
\newlabel{fig:norm_error}{{5}{7}{Comparison of (a) normalized error vs. equilibrium criterion $(\delta =\textbf {u} \cdot \textbf {n})$ for $Ca=0.08$, and $N=60$, $80$ and $100$ marker points; and (b) comparison of normalized error vs $Ca$ for $\lambda =0.1,1$ and $10$, and $\delta =0.01$.\relax }{figure.caption.13}{}}
\@writefile{lof}{\contentsline {subfigure}{\numberline{(a)}{\ignorespaces {}}}{7}{subfigure.5.1}}
\@writefile{lof}{\contentsline {subfigure}{\numberline{(b)}{\ignorespaces {}}}{7}{subfigure.5.2}}
\@writefile{toc}{\contentsline {subsection}{Case\nobreakspace  {}2: Electrohydrodynamics problem}{7}{section*.14}}
\@writefile{toc}{\contentsline {section}{Summary and Conclusions}{7}{section*.17}}
\bibcite{Gunzburger_2000}{1}
\bibcite{Jameson_1988}{2}
\bibcite{Bewley_2001}{3}
\bibcite{Giles_2001}{4}
\bibcite{Wei_2006}{5}
\bibcite{Kim_2014}{6}
\bibcite{Rallison_1984}{7}
\bibcite{Taylor_1934}{8}
\bibcite{Sherwood_1988}{9}
\newlabel{fig:cp_rank4}{{6a}{8}{Subfigure 6a}{subfigure.6.1}{}}
\newlabel{sub@fig:cp_rank4}{{(a)}{a}{Subfigure 6a\relax }{subfigure.6.1}{}}
\newlabel{fig:cp_rank9}{{6b}{8}{Subfigure 6b}{subfigure.6.2}{}}
\newlabel{sub@fig:cp_rank9}{{(b)}{b}{Subfigure 6b\relax }{subfigure.6.2}{}}
\@writefile{lof}{\contentsline {figure}{\numberline {6}{\ignorespaces Drop deformation $D$ vs. electric capillary number $Ca_E$ for (a) prolate and (b) oblate cases on $N=50$ grid. The viscosity ratio $\lambda =1$, resistivity ratio $R=0.1$ and conductivity ratio $Q=1.37$. The $\triangle $ symbol represents the present numerical simulation and the solid line is from the numerical result of\nobreakspace  {}\cite  {Lac_2007}. The dot-dashed line and dashed lines correspond to the linear theory of \cite  {Taylor_1966} and second-order correction by\nobreakspace  {}\cite  {Ajayi_1978}, respectively.\relax }}{8}{figure.caption.15}}
\newlabel{fig:DvsC_PO}{{6}{8}{Drop deformation $D$ vs. electric capillary number $Ca_E$ for (a) prolate and (b) oblate cases on $N=50$ grid. The viscosity ratio $\lambda =1$, resistivity ratio $R=0.1$ and conductivity ratio $Q=1.37$. The $\triangle $ symbol represents the present numerical simulation and the solid line is from the numerical result of~\cite {Lac_2007}. The dot-dashed line and dashed lines correspond to the linear theory of \cite {Taylor_1966} and second-order correction by~\cite {Ajayi_1978}, respectively.\relax }{figure.caption.15}{}}
\@writefile{lof}{\contentsline {subfigure}{\numberline{(a)}{\ignorespaces {}}}{8}{subfigure.6.1}}
\@writefile{lof}{\contentsline {subfigure}{\numberline{(b)}{\ignorespaces {}}}{8}{subfigure.6.2}}
\newlabel{fig:cp_rank4}{{\caption@xref {fig:cp_rank4}{ on input line 1454}}{8}{Case~2: Electrohydrodynamics problem}{figure.caption.16}{}}
\@writefile{lof}{\contentsline {figure}{\numberline {7}{\ignorespaces Comparison of normalized error vs. equilibrium criterion $(\delta =\textbf  {u} \cdot \textbf  {n})$ for prolate deformation. The simulations are conducted on $N=50$, $60$ and $80$ marker points for $Ca_E=0.08$. \relax }}{8}{figure.caption.16}}
\newlabel{fig:norm_error_po}{{7}{8}{Comparison of normalized error vs. equilibrium criterion $(\delta =\textbf {u} \cdot \textbf {n})$ for prolate deformation. The simulations are conducted on $N=50$, $60$ and $80$ marker points for $Ca_E=0.08$. \relax }{figure.caption.16}{}}
\@writefile{toc}{\contentsline {section}{Acknowledgements}{8}{section*.18}}
\@writefile{toc}{\contentsline {section}{References}{8}{section*.19}}
\bibcite{Lac_2007}{10}
\bibcite{Das_2017b}{11}
\bibcite{Acrivos_1983}{12}
\bibcite{Stone_1994}{13}
\bibcite{Melcher_1969}{14}
\bibcite{Pozrikidis_1990}{15}
\bibcite{Pozrikidis_1992}{16}
\bibcite{Stone_1989}{17}
\bibcite{Biesel_1973}{18}
\bibcite{Rallison_1978}{19}
\bibcite{Taylor_1966}{20}
\bibcite{Ajayi_1978}{21}
