0.04	0.0301777653	0.0314124724	0.0311271027
0.045	0.0319551943	0.0327427046	0.0331414415
0.05	0.0320810593	0.03341201	0.0340115428
0.055	0.0333369981	0.03415716	0.0333134868
0.065	0.0321659722	0.0291848149	0.0265380477
0.07	0.0294426481	0.024860006	0.0187571799
0.075	0.0253907993	0.0169593266	0.0062467048
0.08	0.0198967766	0.0059594399	0.0116339259
